14:25:38 - 171.48.86.202
14:29:02 - 106.222.177.92
14:31:57 - 169.149.133.156
14:35:07 - 42.111.83.49
14:43:58 - 42.111.56.164
14:45:01 - 42.111.56.164
14:50:34 - 2405:204:8287:3e0e:b86d:b9e:2bce:f279
14:51:37 - 2405:204:8287:3e0e:b86d:b9e:2bce:f279
14:57:01 - 42.111.42.139
14:58:03 - 42.111.42.139
14:59:05 - 42.111.42.139
15:16:47 - 103.196.215.254
15:33:07 - 171.48.86.202
15:55:17 - 120.56.184.64
16:00:41 - 42.111.42.139
16:33:22 - 66.220.145.244
16:33:43 - 66.220.145.244
17:07:04 - 106.192.151.216
17:09:00 - 106.192.151.216
17:10:27 - 106.192.151.216
17:11:29 - 106.192.151.216
17:12:32 - 106.192.151.216
17:13:33 - 106.192.151.216
17:14:35 - 106.192.151.216
17:15:37 - 106.192.151.216
17:16:39 - 106.192.151.216
17:17:41 - 106.192.151.216
17:18:43 - 106.192.151.216
17:19:46 - 106.192.151.216
17:20:48 - 106.192.151.216
17:21:49 - 106.192.151.216
17:22:52 - 106.192.151.216
17:23:54 - 106.192.151.216
17:24:56 - 106.192.151.216
17:25:57 - 106.192.151.216
17:26:59 - 106.192.151.216
17:28:03 - 106.192.151.216
17:29:05 - 106.192.151.216
17:35:14 - 106.192.151.216
17:44:45 - 106.192.151.216
