02:34:18 - 66.220.145.244
02:34:34 - 66.220.145.244
10:09:43 - 109.172.204.17
10:10:45 - 109.172.204.17
10:11:47 - 109.172.204.17
10:12:49 - 109.172.204.17
10:13:51 - 109.172.204.17
10:14:53 - 109.172.204.17
10:15:55 - 109.172.204.17
10:16:49 - 109.172.204.17
