06:04:49 - 106.76.196.23
06:05:51 - 106.76.196.23
10:18:02 - 171.48.110.1
10:19:04 - 171.48.110.1
19:41:25 - 66.220.145.244
19:41:44 - 66.220.145.244
21:15:03 - 66.220.145.244
21:15:26 - 66.220.145.244
