06:14:38 - 43.228.222.198
06:14:53 - 43.228.222.198
11:55:39 - 43.228.222.198
11:56:41 - 43.228.222.198
11:57:44 - 43.228.222.198
11:58:45 - 43.228.222.198
11:59:47 - 43.228.222.198
12:00:49 - 43.228.222.198
12:01:51 - 43.228.222.198
12:02:54 - 43.228.222.198
12:03:56 - 43.228.222.198
12:04:58 - 43.228.222.198
12:05:59 - 43.228.222.198
12:07:02 - 43.228.222.198
15:39:56 - 117.200.192.43
15:42:00 - 124.123.182.229
15:42:26 - 124.123.182.229
15:53:05 - 169.149.132.184
16:58:51 - 106.192.153.204
20:18:03 - 223.225.235.192
21:58:32 - 223.225.235.192
22:13:40 - 223.225.235.192
