07:29:30 - 60.243.124.35
07:30:32 - 60.243.124.35
07:31:34 - 60.243.124.35
07:32:37 - 60.243.124.35
07:33:38 - 60.243.124.35
07:34:41 - 60.243.124.35
07:35:42 - 60.243.124.35
07:36:44 - 60.243.124.35
07:37:47 - 60.243.124.35
07:38:49 - 60.243.124.35
07:39:51 - 60.243.124.35
07:40:52 - 60.243.124.35
07:41:55 - 60.243.124.35
07:42:57 - 60.243.124.35
07:43:59 - 60.243.124.35
07:45:01 - 60.243.124.35
07:46:03 - 60.243.124.35
07:47:05 - 60.243.124.35
07:48:07 - 60.243.124.35
07:49:09 - 60.243.124.35
07:50:11 - 60.243.124.35
07:51:13 - 60.243.124.35
07:52:16 - 60.243.124.35
07:53:18 - 60.243.124.35
07:54:20 - 60.243.124.35
07:55:22 - 60.243.124.35
07:56:24 - 60.243.124.35
07:57:27 - 60.243.124.35
07:58:28 - 60.243.124.35
07:59:30 - 60.243.124.35
08:00:32 - 60.243.124.35
08:01:34 - 60.243.124.35
08:02:37 - 60.243.124.35
08:03:39 - 60.243.124.35
08:04:40 - 60.243.124.35
08:05:42 - 60.243.124.35
08:06:44 - 60.243.124.35
08:07:47 - 60.243.124.35
08:08:49 - 60.243.124.35
08:09:50 - 60.243.124.35
08:10:52 - 60.243.124.35
08:11:54 - 60.243.124.35
08:12:57 - 60.243.124.35
08:13:59 - 60.243.124.35
08:15:01 - 60.243.124.35
08:16:03 - 60.243.124.35
08:17:07 - 60.243.124.35
08:18:10 - 60.243.124.35
08:19:12 - 60.243.124.35
08:20:14 - 60.243.124.35
08:21:16 - 60.243.124.35
08:22:18 - 60.243.124.35
08:23:20 - 60.243.124.35
08:24:22 - 60.243.124.35
08:25:25 - 60.243.124.35
08:26:28 - 60.243.124.35
08:27:30 - 60.243.124.35
08:28:32 - 60.243.124.35
08:29:34 - 60.243.124.35
08:30:36 - 60.243.124.35
08:31:38 - 60.243.124.35
08:32:40 - 60.243.124.35
08:33:42 - 60.243.124.35
08:34:44 - 60.243.124.35
08:35:46 - 60.243.124.35
08:36:47 - 60.243.124.35
08:37:51 - 60.243.124.35
08:38:53 - 60.243.124.35
08:39:55 - 60.243.124.35
08:40:58 - 60.243.124.35
08:42:00 - 60.243.124.35
08:43:03 - 60.243.124.35
08:44:05 - 60.243.124.35
08:45:07 - 60.243.124.35
08:46:09 - 60.243.124.35
08:47:12 - 60.243.124.35
08:48:15 - 60.243.124.35
08:49:17 - 60.243.124.35
08:50:18 - 60.243.124.35
08:51:21 - 60.243.124.35
08:52:24 - 60.243.124.35
08:53:26 - 60.243.124.35
08:54:28 - 60.243.124.35
08:55:30 - 60.243.124.35
08:56:32 - 60.243.124.35
08:57:35 - 60.243.124.35
08:58:37 - 60.243.124.35
08:59:39 - 60.243.124.35
09:00:41 - 60.243.124.35
09:01:43 - 60.243.124.35
09:02:45 - 60.243.124.35
09:03:47 - 60.243.124.35
09:04:49 - 60.243.124.35
09:05:51 - 60.243.124.35
09:06:53 - 60.243.124.35
09:07:56 - 60.243.124.35
09:08:58 - 60.243.124.35
09:10:00 - 60.243.124.35
09:11:02 - 60.243.124.35
09:12:04 - 60.243.124.35
09:13:07 - 60.243.124.35
09:14:09 - 60.243.124.35
09:15:11 - 60.243.124.35
09:16:13 - 60.243.124.35
09:17:16 - 60.243.124.35
09:18:18 - 60.243.124.35
09:19:20 - 60.243.124.35
09:20:22 - 60.243.124.35
09:21:24 - 60.243.124.35
09:22:27 - 60.243.124.35
09:23:29 - 60.243.124.35
09:24:31 - 60.243.124.35
